<?xml version="1.0" encoding="iso-8859-1"?>
<!-- Generator: Adobe Illustrator 16.0.0, SVG Export Plug-In . SVG Version: 6.00 Build 0)  -->
<!DOCTYPE svg PUBLIC "-//W3C//DTD SVG 1.1//EN" "http://www.w3.org/Graphics/svg/1.1/DTD/svg11.dtd">
<svg xmlns="http://www.w3.org/2000/svg" xmlns:xlink="http://www.w3.org/1999/xlink" version="1.1" id="Capa_1" x="0px" y="0px" width="16px" height="16px" viewBox="0 0 893.704 893.705" style="enable-background:new 0 0 893.704 893.705;" xml:space="preserve">
<g>
	<g id="Small_Icons">
		<g id="Artboard_4">
			<path id="Rectangle_63" d="M767.184,75.198l120.245,100.794c7.193,6.084,8.525,17.405,2.31,24.822l-516.673,615.69     c-4.084,4.884-9.726,6.927-15.231,6.216c-3.86-0.178-7.68-1.6-10.876-4.263L6.61,532.857c-7.594-6.305-8.884-17.762-2.622-25.221     l100.527-119.8c6.084-7.236,17.628-8.259,25.355-1.776l207.362,173.975L742.32,77.195     C748.98,69.337,759.725,68.894,767.184,75.198z" fill="#000000"/>
		</g>
	</g>
</g>
<g>
</g>
<g>
</g>
<g>
</g>
<g>
</g>
<g>
</g>
<g>
</g>
<g>
</g>
<g>
</g>
<g>
</g>
<g>
</g>
<g>
</g>
<g>
</g>
<g>
</g>
<g>
</g>
<g>
</g>
</svg>
